Analysis of California Spiny Lobster size and abundance based on data from the Santa Barbara Coastal Long-Term Ecological Research Program (2012-2018)
…
>>>>>>> bb4a249d4099fe7fb662214c87135faab812b393
=======
>>>>>>> 288f581cdfc942bc5e88025355847dd8e3d3ddf8
>>>>>>> e0a4f403d47f9486afc69212847774c6717f37ac

## # A tibble: 35 x 3
##     year site      n
##    <dbl> <chr> <int>
##  1  2012 AQUE     53
##  2  2012 CARP     81
##  3  2012 IVEE     47
##  4  2012 MOHK     58
##  5  2012 NAPL     37
##  6  2013 AQUE     46
##  7  2013 CARP     88
##  8  2013 IVEE     57
##  9  2013 MOHK     18
## 10  2013 NAPL     73
<<<<<<< HEAD
## #  with 25 more rows
…
